9,1,4-9
10,2,5-10
11,3,6-11
0,4,7-0
1,5,8-1
2,6,9-2
3,7,10-3
4,8,11-4
5,9,0-5
6,10,1-6
7,11,2-7
8,0,3-8
9,0,4-9
10,1,5-10
11,2,6-11
0,3,7-0
1,4,8-1
2,5,9-2
3,6,10-3
4,7,11-4
5,8,0-5
6,9,1-6
7,10,2-7
8,11,3-8
9,0,3-9
10,1,4-10
11,2,5-11
0,3,6-0
1,4,7-1
2,5,8-2
3,6,9-3
4,7,10-4
5,8,11-5
6,9,0-6
7,10,1-7
8,11,1-8
9,1,5-9
10,2,6-10
11,3,7-11
0,4,8-0
1,5,9-1
2,6,10-2
3,7,11-3
4,8,0-4
5,9,1-5
6,10,2-6
7,11,3-7
8,0,4-8
9,1,4,7-9
10,2,5,8-10
11,3,6,9-11
0,4,7,10-0
1,5,8,11-1
2,6,9,0-2
3,7,10,1-3
4,8,11,2-4
5,9,0,3-5
6,10,1,4-6
7,11,2,5-7
8,0,3,6-8
9,0,4,7-9
10,1,5,8-10
11,2,6,9-11
0,3,7,10-0
1,4,8,11-1
2,5,9,0-2
3,6,10,1-3
4,7,11,2-4
5,8,0,3-5
6,9,1,4-6
7,10,2,5-7
8,11,3,6-8
9,1,4,8-9
10,2,5,9-10
11,3,6,10-11
0,4,7,11-0
1,5,8,0-1
2,6,9,1-2
3,7,10,2-3
4,8,11,3-4
5,9,0,4-5
6,10,1,5-6
7,11,2,6-7
8,0,3,7-8
9,0,4,8-9
10,1,5,9-10
11,2,6,10-11
0,3,7,11-0
1,4,8,0-1
2,5,9,1-2
3,6,10,2-3
4,7,11,3-4
5,8,0,4-5
6,9,1,5-6
7,10,2,6-7
8,11,3,7-8
9,1,3,7-9
10,2,4,8-10
11,3,5,9-11
0,4,6,10-0
1,5,7,11-1
2,6,8,0-2
3,7,9,1-3
4,8,10,2-4
5,9,11,3-5
6,10,0,4-6
7,11,1,5-7
8,0,2,6-8
9,0,3,7-9
10,1,4,8-10
11,2,5,9-11
0,3,6,10-0
1,4,7,11-1
2,5,8,0-2
3,6,10,1-3
4,7,10,2-4
5,8,11,3-5
6,9,0,4-6
7,10,1,5-7
8,11,3,6-8
9,0,3,6-9
10,1,4,7-10
11,2,5,8-11
0,3,6,9-0
1,4,7,10-1
2,5,8,11-2
3,6,9,0-3
4,7,10,1-4
5,8,11,2-5
6,9,0,3-6
7,10,1,4-7
8,11,2,5-8
9,1,5,7-9
10,2,6,8-10
11,3,7,9-11
0,4,8,10-0
1,5,9,11-1
2,6,10,0-2
3,7,11,1-3
4,8,0,2-4
5,9,1,3-5
6,10,2,4-6
7,11,3,5-7
8,0,4,6-8
9,1,4,6-9
10,2,5,7-10
11,3,6,8-11
0,4,7,9-0
1,5,8,10-1
2,6,9,11-2
3,7,10,0-3
4,8,11,1-4
5,9,0,2-5
6,10,1,3-6
7,11,2,4-7
8,0,3,5-8
9,0,4,6-9
10,1,5,7-10
11,2,6,8-11
0,3,7,9-0
1,4,8,10-1
2,5,9,11-2
3,6,10,0-3
4,7,11,1-4
5,8,0,2-5
6,9,1,3-6
7,10,2,4-7
8,11,3,5-8
9,1,4,6,11-9
10,2,5,7,0-10
11,3,6,8,1-11
0,4,7,9,2-0
1,5,8,10,3-1
2,6,9,11,4-2
3,7,10,0,5-3
4,8,11,1,6-4
5,9,0,2,7-5
6,10,1,3,8-6
7,11,2,4,9-7
8,0,3,5,10-8
9,1,4,7,11-9
10,2,5,8,0-10
11,3,6,9,1-11
0,4,7,10,2-0
1,5,8,11,3-1
2,6,9,0,4-2
3,7,10,1,5-3
4,8,11,2,6-4
5,9,0,3,7-5
6,10,1,4,8-6
7,11,2,5,9-7
8,0,3,6,10-8
9,1,4,8,11-9
10,2,5,9,0-10
11,3,6,10,1-11
0,4,7,11,2-0
1,5,8,0,3-1
2,6,9,1,4-2
3,7,10,2,5-3
4,8,11,3,6-4
5,9,0,4,7-5
6,10,1,5,8-6
7,11,2,6,9-7
8,0,3,7,10-8
9,2,4-9
10,3,5-10
11,4,6-11
0,5,7-0
1,6,8-1
2,7,9-2
3,8,10-3
4,9,11-4
5,10,0-5
6,11,1-6
7,0,2-7
8,1,3-8
9,11,4-9
10,0,5-10
11,1,6-11
0,2,7-0
1,3,8-1
2,4,9-2
3,5,10-3
4,6,11-4
5,7,0-5
6,8,1-6
7,9,2-7
8,10,3-8
9,2,4,7,11-9
10,3,5,8,0-10
11,4,6,9,1-11
0,5,7,10,2-0
1,6,8,11,3-1
2,7,9,0,4-2
3,8,10,1,5-3
4,9,11,2,6-4
5,10,0,3,7-5
6,11,1,4,8-6
7,0,2,5,9-7
8,1,3,6,10-8
9,1,4,7,0-9
10,2,5,8,1-10
11,3,6,9,2-11
0,4,7,10,3-0
1,5,8,11,4-1
2,6,9,0,5-2
3,7,10,1,6-3
4,8,11,2,7-4
5,9,0,3,8-5
6,10,1,4,9-6
7,11,2,5,10-7
8,0,3,6,11-8
9,1,4,7,10-9
10,2,5,8,11-10
11,3,6,9,0-11
0,4,7,10,1-0
1,5,8,11,2-1
2,6,9,0,3-2
3,7,10,1,4-3
4,8,11,2,5-4
5,9,0,3,6-5
6,10,1,4,7-6
7,11,2,5,8-7
8,0,3,6,9-8
9,2,4,7-9
10,3,5,8-10
11,4,6,9-11
0,5,7,10-0
1,6,8,11-1
2,7,9,0-2
3,8,10,1-3
4,9,11,2-4
5,10,0,3-5
6,11,1,4-6
7,0,2,5-7
8,11,3,6-8
9,1,4,7,6-9
10,2,5,8,7-10
11,3,6,9,8-11
0,4,7,10,9-0
1,5,8,11,10-1
2,6,9,0,11-2
3,7,10,1,0-3
4,8,11,2,1-4
5,9,0,3,2-5
6,10,1,4,3-6
7,11,2,5,4-7
8,0,3,6,5-8
9,1,4,7,11,6-9
10,2,5,8,0,7-10
11,3,6,9,1,8-11
0,4,7,10,2,9-0
1,5,8,11,3,10-1
2,6,9,0,4,11-2
3,7,10,1,5,0-3
4,8,11,2,6,1-4
5,9,0,3,7,2-5
6,10,1,4,8,3-6
7,11,2,5,9,4-7
8,0,3,6,10,5-8
9,0,4,7,11-9
10,1,5,8,0-10
11,2,6,9,1-11
0,3,7,10,2-0
1,4,8,11,3-1
2,5,9,0,4-2
3,6,10,1,5-3
4,7,11,2,6-4
5,8,0,3,7-5
6,9,1,4,8-6
7,10,2,5,9-7
8,11,3,6,10-8